{
    "eventos": [
        {
            "start": "2019-05-20T18:00:00",
            "end": "2019-05-20T19:00:00",
            "title": "PreBenjamí",
            "backgroundColor": "#ff8080",
            "IdEquipo": 1223161590056
        },
        {
            "start": "2019-05-23T17:30:00",
            "end": "2019-05-23T18:30:00",
            "title": "PreBenjamí",
            "backgroundColor": "#ff8080",
            "IdEquipo": 1223161590056
        },
        {
            "start": "2019-05-24T18:00:00",
            "end": "2019-05-24T19:00:00",
            "title": "Infantil 08",
            "backgroundColor": "#008080",
            "IdEquipo": 1688024420418
        },
        {
            "start": "2019-05-23T19:30:00",
            "end": "2019-05-23T20:30:00",
            "title": "Junior 05",
            "backgroundColor": "#808080",
            "IdEquipo": 627026115961
        },
        {
            "start": "2019-05-21T19:30:00",
            "end": "2019-05-21T20:30:00",
            "title": "Junior 05",
            "backgroundColor": "#808080",
            "IdEquipo": 627026115961
        },
        {
            "start": "2019-05-21T20:30:00",
            "end": "2019-05-21T22:00:00",
            "title": "Senior Fem",
            "backgroundColor": "#ff80c0",
            "IdEquipo": 4460906888068
        },
        {
            "start": "2019-05-23T20:30:00",
            "end": "2019-05-23T22:00:00",
            "title": "Senior Fem",
            "backgroundColor": "#ff80c0",
            "IdEquipo": 4460906888068
        },
        {
            "start": "2019-05-22T20:30:00",
            "end": "2019-05-22T22:00:00",
            "title": "Senior Aut",
            "backgroundColor": "#ff8000",
            "IdEquipo": 3732360484157
        },
        {
            "start": "2019-05-20T20:00:00",
            "end": "2019-05-20T21:00:00",
            "title": "Cadet 06",
            "backgroundColor": "#0000a0",
            "IdEquipo": 5455180397235
        },
        {
            "start": "2019-05-24T17:00:00",
            "end": "2019-05-24T18:00:00",
            "title": "Benjamí 12",
            "backgroundColor": "#0080ff",
            "IdEquipo": 2169590180438
        },
        {
            "start": "2019-05-20T21:00:00",
            "end": "2019-05-20T22:30:00",
            "title": "Senior Aut",
            "backgroundColor": "#ff8000",
            "IdEquipo": 3732360484157
        },
        {
            "start": "2019-05-21T20:00:00",
            "end": "2019-05-21T21:00:00",
            "title": "Cadet Fem",
            "backgroundColor": "#ff0080",
            "IdEquipo": 1903424950247
        },
        {
            "start": "2019-05-23T20:00:00",
            "end": "2019-05-23T21:00:00",
            "title": "Cadet Fem",
            "backgroundColor": "#ff0080",
            "IdEquipo": 1903424950247
        },
        {
            "start": "2019-05-20T19:00:00",
            "end": "2019-05-20T20:00:00",
            "title": "Aleví 10",
            "backgroundColor": "#0080ff",
            "IdEquipo": 8812428416110
        },
        {
            "start": "2019-05-20T18:00:00",
            "end": "2019-05-20T19:00:00",
            "title": "Aleví Fem",
            "backgroundColor": "#80ffff",
            "IdEquipo": 2327287165057
        },
        {
            "start": "2019-05-20T18:00:00",
            "end": "2019-05-20T19:00:00",
            "title": "Benjamí Fem",
            "backgroundColor": "#ffff80",
            "IdEquipo": 3746717041698
        },
        {
            "start": "2019-05-20T19:00:00",
            "end": "2019-05-20T20:00:00",
            "title": "Aleví 11",
            "backgroundColor": "#ff80ff",
            "IdEquipo": 2169590180435
        },
        {
            "start": "2019-05-20T19:00:00",
            "end": "2019-05-20T20:00:00",
            "title": "Cadet 07",
            "backgroundColor": "#008000",
            "IdEquipo": 2769111386746
        },
        {
            "start": "2019-05-20T20:00:00",
            "end": "2019-05-20T21:00:00",
            "title": "Infantil 09",
            "backgroundColor": "#ff8040",
            "IdEquipo": 7854076180384
        },
        {
            "start": "2019-05-21T19:30:00",
            "end": "2019-05-21T20:30:00",
            "title": "Infantil Fem",
            "backgroundColor": "#ff0000",
            "IdEquipo": 622659744173
        },
        {
            "start": "2019-05-21T20:30:00",
            "end": "2019-05-21T21:30:00",
            "title": "Infantil 08",
            "backgroundColor": "#008080",
            "IdEquipo": 1688024420418
        },
        {
            "start": "2019-05-21T21:00:00",
            "end": "2019-05-21T22:00:00",
            "title": "Junior Fem",
            "backgroundColor": "#808040",
            "IdEquipo": 9693810021210
        },
        {
            "start": "2019-05-22T17:30:00",
            "end": "2019-05-22T18:30:00",
            "title": "Junior 04",
            "backgroundColor": "#ffffff",
            "IdEquipo": 5371574618172
        },
        {
            "start": "2019-05-22T17:30:00",
            "end": "2019-05-22T18:30:00",
            "title": "Benjamí 13",
            "backgroundColor": "#80ff80",
            "IdEquipo": 9234916704656
        },
        {
            "start": "2019-05-22T19:30:00",
            "end": "2019-05-22T20:30:00",
            "title": "Alevi BIS",
            "backgroundColor": "#804040",
            "IdEquipo": 3989319243876
        },
        {
            "start": "2019-05-22T18:30:00",
            "end": "2019-05-22T19:30:00",
            "title": "Cadet BIS",
            "backgroundColor": "#8000ff",
            "IdEquipo": 2859290262977
        },
        {
            "start": "2019-05-22T19:30:00",
            "end": "2019-05-22T20:30:00",
            "title": "Senior Pref",
            "backgroundColor": "#00ff00",
            "IdEquipo": 7946750153178
        },
        {
            "start": "2019-05-23T17:30:00",
            "end": "2019-05-23T18:30:00",
            "title": "Benjamí Fem",
            "backgroundColor": "#ffff80",
            "IdEquipo": 3746717041698
        },
        {
            "start": "2019-05-23T18:30:00",
            "end": "2019-05-23T19:30:00",
            "title": "Infantil 09",
            "backgroundColor": "#ff8040",
            "IdEquipo": 7854076180384
        },
        {
            "start": "2019-05-24T17:00:00",
            "end": "2019-05-24T18:00:00",
            "title": "Benjamí 13",
            "backgroundColor": "#80ff80",
            "IdEquipo": 9234916704656
        },
        {
            "start": "2019-05-20T20:00:00",
            "end": "2019-05-20T21:00:00",
            "title": "Alevi BIS",
            "backgroundColor": "#804040",
            "IdEquipo": 3989319243876
        },
        {
            "start": "2019-05-22T19:30:00",
            "end": "2019-05-22T20:30:00",
            "title": "Infantil BIS",
            "backgroundColor": "#8080ff",
            "IdEquipo": 5316316384118
        },
        {
            "start": "2019-05-23T19:30:00",
            "end": "2019-05-23T20:30:00",
            "title": "Infantil Fem",
            "backgroundColor": "#ff0000",
            "IdEquipo": 622659744173
        },
        {
            "start": "2019-05-23T18:30:00",
            "end": "2019-05-23T20:00:00",
            "title": "Aleví 10",
            "backgroundColor": "#0080ff",
            "IdEquipo": 8812428416110
        },
        {
            "start": "2019-05-24T19:00:00",
            "end": "2019-05-24T20:30:00",
            "title": "Senior Pref",
            "backgroundColor": "#00ff00",
            "IdEquipo": 7946750153178
        },
        {
            "start": "2019-05-24T20:30:00",
            "end": "2019-05-24T22:30:00",
            "title": "Senior Aut",
            "backgroundColor": "#ff8000",
            "IdEquipo": 3732360484157
        },
        {
            "start": "2019-05-22T17:30:00",
            "end": "2019-05-22T19:30:00",
            "title": "Ritmica",
            "backgroundColor": "",
            "IdEquipo": 6374369682719
        },
        {
            "start": "2019-05-24T17:00:00",
            "end": "2019-05-24T18:00:00",
            "title": "Junior 04",
            "backgroundColor": "#ffffff",
            "IdEquipo": 5371574618172
        },
        {
            "start": "2019-05-24T18:00:00",
            "end": "2019-05-24T19:00:00",
            "title": "Cadet BIS",
            "backgroundColor": "#8000ff",
            "IdEquipo": 2859290262977
        },
        {
            "start": "2019-05-24T19:00:00",
            "end": "2019-05-24T20:00:00",
            "title": "Junior Fem",
            "backgroundColor": "#808040",
            "IdEquipo": 9693810021210
        },
        {
            "start": "2019-05-23T18:30:00",
            "end": "2019-05-23T19:30:00",
            "title": "Cadet 07",
            "backgroundColor": "#008000",
            "IdEquipo": 2769111386746
        },
        {
            "start": "2019-05-24T20:00:00",
            "end": "2019-05-24T21:00:00",
            "title": "Cadet 06",
            "backgroundColor": "#0000a0",
            "IdEquipo": 5455180397235
        },
        {
            "start": "2019-05-24T19:00:00",
            "end": "2019-05-24T20:00:00",
            "title": "Infantil BIS",
            "backgroundColor": "#8080ff",
            "IdEquipo": 5316316384118
        },
        {
            "start": "2019-05-24T18:00:00",
            "end": "2019-05-24T19:00:00",
            "title": "Aleví Fem",
            "backgroundColor": "#80ffff",
            "IdEquipo": 2327287165057
        },
        {
            "start": "2019-05-22T18:30:00",
            "end": "2019-05-22T19:30:00",
            "title": "Benjamí 12",
            "backgroundColor": "#0080ff",
            "IdEquipo": 2169590180438
        },
        {
            "start": "2019-05-23T17:30:00",
            "end": "2019-05-23T18:30:00",
            "title": "Aleví 11",
            "backgroundColor": "#ff80ff",
            "IdEquipo": 2169590180435
        }
    ],
    "equipos": [
        {
            "Entrenadores": [
                {
                    "nombre": "Clara",
                    "IdEntrenador": 4
                },
                {
                    "nombre": "Dani",
                    "IdEntrenador": 17
                }
            ],
            "color": "#ff8080",
            "nombre": "PreBenjamí",
            "IdEquipo": 1223161590056
        },
        {
            "Entrenadores": [
                {
                    "nombre": "Natalia Parrondo",
                    "IdEntrenador": 14
                },
                {
                    "nombre": "Sandra",
                    "IdEntrenador": 19
                }
            ],
            "color": "#ffff80",
            "nombre": "Benjamí Fem",
            "IdEquipo": 3746717041698
        },
        {
            "Entrenadores": [
                {
                    "nombre": "Claudia",
                    "IdEntrenador": 7
                },
                {
                    "nombre": "Paco",
                    "IdEntrenador": 3
                }
            ],
            "color": "#80ff80",
            "nombre": "Benjamí 13",
            "IdEquipo": 9234916704656
        },
        {
            "Entrenadores": [
                {
                    "nombre": "Mateo",
                    "IdEntrenador": 21
                }
            ],
            "color": "#0080ff",
            "nombre": "Benjamí 12",
            "IdEquipo": 2169590180438
        },
        {
            "Entrenadores": [
                {
                    "nombre": "Pablo",
                    "IdEntrenador": 23
                }
            ],
            "color": "#80ffff",
            "nombre": "Aleví Fem",
            "IdEquipo": 2327287165057
        },
        {
            "Entrenadores": [
                {
                    "nombre": "Irene",
                    "IdEntrenador": 6
                }
            ],
            "color": "#ff80ff",
            "nombre": "Aleví 11",
            "IdEquipo": 2169590180435
        },
        {
            "Entrenadores": [
                {
                    "nombre": "Clara",
                    "IdEntrenador": 4
                }
            ],
            "color": "#0080ff",
            "nombre": "Aleví 10",
            "IdEquipo": 8812428416110
        },
        {
            "Entrenadores": [],
            "color": "#804040",
            "nombre": "Alevi BIS",
            "IdEquipo": 3989319243876
        },
        {
            "Entrenadores": [
                {
                    "nombre": "Gema",
                    "IdEntrenador": 8
                }
            ],
            "color": "#ff0000",
            "nombre": "Infantil Fem",
            "IdEquipo": 622659744173
        },
        {
            "Entrenadores": [
                {
                    "nombre": "Guille",
                    "IdEntrenador": 15
                }
            ],
            "color": "#ff8040",
            "nombre": "Infantil 09",
            "IdEquipo": 7854076180384
        },
        {
            "Entrenadores": [
                {
                    "nombre": "Maria Bau",
                    "IdEntrenador": 10
                },
                {
                    "nombre": "Jorge Bau",
                    "IdEntrenador": 20
                }
            ],
            "color": "#008080",
            "nombre": "Infantil 08",
            "IdEquipo": 1688024420418
        },
        {
            "Entrenadores": [
                {
                    "nombre": "Nacho",
                    "IdEntrenador": 9
                }
            ],
            "color": "#8080ff",
            "nombre": "Infantil BIS",
            "IdEquipo": 5316316384118
        },
        {
            "Entrenadores": [
                {
                    "nombre": "Cristina",
                    "IdEntrenador": 2
                }
            ],
            "color": "#ff0080",
            "nombre": "Cadet Fem",
            "IdEquipo": 1903424950247
        },
        {
            "Entrenadores": [
                {
                    "nombre": "Vicent Bau",
                    "IdEntrenador": 11
                }
            ],
            "color": "#008000",
            "nombre": "Cadet 07",
            "IdEquipo": 2769111386746
        },
        {
            "Entrenadores": [
                {
                    "nombre": "Nacho",
                    "IdEntrenador": 9
                }
            ],
            "color": "#0000a0",
            "nombre": "Cadet 06",
            "IdEquipo": 5455180397235
        },
        {
            "Entrenadores": [
                {
                    "nombre": "Jose",
                    "IdEntrenador": 24
                }
            ],
            "color": "#8000ff",
            "nombre": "Cadet BIS",
            "IdEquipo": 2859290262977
        },
        {
            "Entrenadores": [
                {
                    "nombre": "Victor",
                    "IdEntrenador": 18
                }
            ],
            "color": "#808040",
            "nombre": "Junior Fem",
            "IdEquipo": 9693810021210
        },
        {
            "Entrenadores": [
                {
                    "nombre": "Rafa",
                    "IdEntrenador": 16
                }
            ],
            "color": "#808080",
            "nombre": "Junior 05",
            "IdEquipo": 627026115961
        },
        {
            "Entrenadores": [
                {
                    "nombre": "Paco",
                    "IdEntrenador": 3
                }
            ],
            "color": "#ffffff",
            "nombre": "Junior 04",
            "IdEquipo": 5371574618172
        },
        {
            "Entrenadores": [
                {
                    "nombre": "Rafa",
                    "IdEntrenador": 16
                },
                {
                    "nombre": "Cristina",
                    "IdEntrenador": 2
                },
                {
                    "nombre": "Irene",
                    "IdEntrenador": 6
                },
                {
                    "nombre": "Claudia",
                    "IdEntrenador": 7
                },
                {
                    "nombre": "Gema",
                    "IdEntrenador": 8
                },
                {
                    "nombre": "Natalia Parrondo",
                    "IdEntrenador": 14
                }
            ],
            "color": "#ff80c0",
            "nombre": "Senior Fem",
            "IdEquipo": 4460906888068
        },
        {
            "Entrenadores": [
                {
                    "nombre": "Adrian",
                    "IdEntrenador": 1
                },
                {
                    "nombre": "Guille",
                    "IdEntrenador": 15
                },
                {
                    "nombre": "Dani",
                    "IdEntrenador": 17
                },
                {
                    "nombre": "Mateo",
                    "IdEntrenador": 21
                },
                {
                    "nombre": "Pablo",
                    "IdEntrenador": 23
                }
            ],
            "color": "#00ff00",
            "nombre": "Senior Pref",
            "IdEquipo": 7946750153178
        },
        {
            "Entrenadores": [
                {
                    "nombre": "Jose María",
                    "IdEntrenador": 5
                },
                {
                    "nombre": "Victor",
                    "IdEntrenador": 18
                },
                {
                    "nombre": "Vicent Bau",
                    "IdEntrenador": 11
                },
                {
                    "nombre": "Adrian",
                    "IdEntrenador": 1
                }
            ],
            "color": "#ff8000",
            "nombre": "Senior Aut",
            "IdEquipo": 3732360484157
        },
        {
            "Entrenadores": [],
            "color": "",
            "nombre": "Ritmica",
            "IdEquipo": 6374369682719
        }
    ],
    "entrenadores": [
        {
            "nombre": "Adrian",
            "IdEntrenador": 1
        },
        {
            "nombre": "Cristina",
            "IdEntrenador": 2
        },
        {
            "nombre": "Paco",
            "IdEntrenador": 3
        },
        {
            "nombre": "Clara",
            "IdEntrenador": 4
        },
        {
            "nombre": "Jose María",
            "IdEntrenador": 5
        },
        {
            "nombre": "Irene",
            "IdEntrenador": 6
        },
        {
            "nombre": "Claudia",
            "IdEntrenador": 7
        },
        {
            "nombre": "Gema",
            "IdEntrenador": 8
        },
        {
            "nombre": "Nacho",
            "IdEntrenador": 9
        },
        {
            "nombre": "Maria Bau",
            "IdEntrenador": 10
        },
        {
            "nombre": "Vicent Bau",
            "IdEntrenador": 11
        },
        {
            "nombre": "Natalia Parrondo",
            "IdEntrenador": 14
        },
        {
            "nombre": "Guille",
            "IdEntrenador": 15
        },
        {
            "nombre": "Rafa",
            "IdEntrenador": 16
        },
        {
            "nombre": "Dani",
            "IdEntrenador": 17
        },
        {
            "nombre": "Victor",
            "IdEntrenador": 18
        },
        {
            "nombre": "Sandra",
            "IdEntrenador": 19
        },
        {
            "nombre": "Jorge Bau",
            "IdEntrenador": 20
        },
        {
            "nombre": "Mateo",
            "IdEntrenador": 21
        },
        {
            "nombre": "Roma",
            "IdEntrenador": 221
        },
        {
            "nombre": "Malena",
            "IdEntrenador": 22
        },
        {
            "nombre": "Pablo",
            "IdEntrenador": 23
        },
        {
            "nombre": "Jose",
            "IdEntrenador": 24
        }
    ]
}